…
length(unique(Biomin_broc_Pacuta_temp$blasted_protein_in_stylophora))
```

    ## [1] 98

``` r
#98 of the 119 proteins with broccoli orthologs had Pacuta orthologs

# which ones did not:

Biomin_Spis %>% filter(blasted_protein_in_stylophora %in% setdiff(unique(Biomin_Spis$blasted_protein_in_stylophora),unique(Biomin_broc_Pacuta_temp$blasted_protein_in_stylophora)))
```

    ## # A tibble: 37 × 4
    ##    accessionnumber_gene_id blasted_protein_in_stylophora definition        ref  
    ##    <chr>                   <chr>                         <chr>             <chr>
    ##  1 aug_v2a.00002.t1        XP_022808048.1                EP-like 2         Take…
    ##  2 aug_v2a.00002.t1        XP_022790310.1                EP-like 2         Take…
    ##  3 aug_v2a.09809.t1        XP_022801334.1                Mucin4-like prot… Take…
    ##  4 aug_v2a.15065.t1        XP_022794122.1                galaxin2          Take…
    ##  5 aug_v2a.15065.t1        XP_022794121.1                galaxin2          Take…
    ##  6 aug_v2a.18631.t1        XP_022794122.1                galaxin           Take…
    ##  7 aug_v2a.18631.t1        XP_022794121.1                galaxin           Take…
    ##  8 aug_v2a.22918.t1        XP_022808048.1                EP-like1          Take…
    ##  9 aug_v2a.22918.t1        XP_022790310.1                EP-like1          Take…
    ## 10 Gene:g22569             XP_022810031.1                Annotated: Fibro… Mumm…
    ## # ℹ 27 more rows
…
